…
Coronavirus disease 2019 (COVID) is an infectious disease and was first identified in December 2019, in Wuhan, Hubei province. The virus is spread primarily via small droplets such as coughing, talking, etc. The median incubation period for COVID-19 is around 5 days, sometimes it could last up to 14 days.So far, more than 900 thousand patients has been reported dead @covid19dashboard.

In the pandemic, different age group people has very diversity impact. Several researchers point out that “the global population aged over sixty and where health systems are weaker and covid-19 could potentially have the greatest impact” @lloyd2020bearing. To verify such content, we download the data from Toronto Public Health via package opendatatoronto @opendatatoronto. With our data analysis, we can tell that elder people suffers more risk than young people in infecting COVID-19 virus.

Data Description

This data set contains demographic, geographic, and severity information for all confirmed and probable cases reported to and managed by Toronto Public Health. Each line summarizes information for an individual case. The information contains ID, Age group, Client Gender, etc.

library(opendatatoronto)
COVID <- search_packages("COVID-19 Cases in Toronto") %>%
  list_package_resources()%>%
  get_resource()
COVID
## # A tibble: 16,942 x 18
##     `_id` Assigned_ID `Outbreak Assoc… `Age Group` `Neighbourhood … FSA  
##     <int>       <int> <chr>            <chr>       <chr>            <chr>
##  1 126705           1 Sporadic         50 to 59 Y… Willowdale East  M2N  
##  2 126706           2 Sporadic         50 to 59 Y… Willowdale East  M2N  
##  3 126707           3 Sporadic         20 to 29 Y… Parkwoods-Donal… M3A  
##  4 126708           4 Sporadic         60 to 69 Y… Church-Yonge Co… M4W  
##  5 126709           5 Sporadic         60 to 69 Y… Church-Yonge Co… M4W  
##  6 126710           6 Sporadic         50 to 59 Y… Newtonbrook West M2R  
##  7 126711           7 Sporadic         80 to 89 Y… Milliken         M1V  
##  8 126712           8 Sporadic         60 to 69 Y… Willowdale West  M2N  
##  9 126713           9 Sporadic         50 to 59 Y… Willowdale East  M2N  
## 10 126714          10 Sporadic         60 to 69 Y… Henry Farm       M2J  
## # … with 16,932 more rows, and 12 more variables: `Source of Infection` <chr>,
## #   Classification <chr>, `Episode Date` <chr>, `Reported Date` <chr>, `Client
## #   Gender` <chr>, Outcome <chr>, `Currently Hospitalized` <chr>, `Currently in
## #   ICU` <chr>, `Currently Intubated` <chr>, `Ever Hospitalized` <chr>, `Ever
## #   in ICU` <chr>, `Ever Intubated` <chr>
…
